[gd_resource type="Resource" load_steps=3 format=2]

[ext_resource path="res://game/resources/level_resource.gd" type="Script" id=1]
[ext_resource path="res://game_work/level1_work.tscn" type="PackedScene" id=2]

[resource]
script = ExtResource( 1 )
level = ExtResource( 2 )
rotation_speed = 15.0
player_speed = 50.0
trail_speed = 75.0
