; Engine configuration file.
; It's best edited using the editor UI and not directly,
; since the parameters that go here are not all obvious.
;
; Format:
;   [section] ; section goes between []
;   param=value ; assign values to parameters

config_version=4

_global_script_classes=[ {
"base": "Reference",
"class": "Appender",
"language": "GDScript",
"path": "res://addons/gs_logger/appender.gd"
}, {
"base": "Node",
"class": "Component",
"language": "GDScript",
"path": "res://gs_ecs/component.gd"
}, {
"base": "Node",
"class": "Configuration",
"language": "GDScript",
"path": "res://gs_core/configuration.gd"
}, {
"base": "Appender",
"class": "ConsoleAppender",
"language": "GDScript",
"path": "res://addons/gs_logger/appenders/console_appender.gd"
}, {
"base": "Resource",
"class": "DreamLoSettingsResource",
"language": "GDScript",
"path": "res://gs_dreamlo/resources/dreamlo_settings_resource.gd"
}, {
"base": "Node",
"class": "Entity",
"language": "GDScript",
"path": "res://gs_ecs/entity.gd"
}, {
"base": "Appender",
"class": "FileAppender",
"language": "GDScript",
"path": "res://addons/gs_logger/appenders/file_appender.gd"
}, {
"base": "LudumSettingsResource",
"class": "GameSettingsResource",
"language": "GDScript",
"path": "res://game/resources/game_settings_resource.gd"
}, {
"base": "Node",
"class": "Group",
"language": "GDScript",
"path": "res://gs_ecs/group.gd"
}, {
"base": "Layout",
"class": "HtmlLayout",
"language": "GDScript",
"path": "res://addons/gs_logger/layouts/html_layout.gd"
}, {
"base": "Reference",
"class": "Layout",
"language": "GDScript",
"path": "res://addons/gs_logger/layout.gd"
}, {
"base": "Resource",
"class": "LevelManagerResource",
"language": "GDScript",
"path": "res://game/resources/level_manager_resource.gd"
}, {
"base": "Resource",
"class": "LevelResource",
"language": "GDScript",
"path": "res://game/resources/level_resource.gd"
}, {
"base": "AudioStreamPlayer2D",
"class": "LoopingAudioStreamPlayer2D",
"language": "GDScript",
"path": "res://game/common/looping_audio_stream_player.gd"
}, {
"base": "Node",
"class": "LudumScene",
"language": "GDScript",
"path": "res://gs_ludumdare/scenes/ludum_scene.gd"
}, {
"base": "Resource",
"class": "LudumSettingsResource",
"language": "GDScript",
"path": "res://gs_ludumdare/resources/ludum_settings_resource.gd"
}, {
"base": "Reference",
"class": "Message",
"language": "GDScript",
"path": "res://addons/gs_logger/message.gd"
}, {
"base": "Layout",
"class": "PatternLayout",
"language": "GDScript",
"path": "res://addons/gs_logger/layouts/pattern_layout.gd"
}, {
"base": "Node",
"class": "System",
"language": "GDScript",
"path": "res://gs_ecs/system.gd"
}, {
"base": "Reference",
"class": "Thing",
"language": "GDScript",
"path": "res://gs_core/thing.gd"
}, {
"base": "Reference",
"class": "UUID",
"language": "GDScript",
"path": "res://gs_core/uuid.gd"
}, {
"base": "Resource",
"class": "ViewResource",
"language": "GDScript",
"path": "res://gs_window_manager/resources/view_resource.gd"
}, {
"base": "Resource",
"class": "WindowManagerResource",
"language": "GDScript",
"path": "res://gs_window_manager/resources/window_manager_resource.gd"
}, {
"base": "Resource",
"class": "WindowResource",
"language": "GDScript",
"path": "res://gs_window_manager/resources/window_resource.gd"
} ]
_global_script_class_icons={
"Appender": "",
"Component": "",
"Configuration": "",
"ConsoleAppender": "",
"DreamLoSettingsResource": "",
"Entity": "",
"FileAppender": "",
"GameSettingsResource": "",
"Group": "",
"HtmlLayout": "",
"Layout": "",
"LevelManagerResource": "",
"LevelResource": "",
"LoopingAudioStreamPlayer2D": "",
"LudumScene": "",
"LudumSettingsResource": "",
"Message": "",
"PatternLayout": "",
"System": "",
"Thing": "",
"UUID": "",
"ViewResource": "",
"WindowManagerResource": "",
"WindowResource": ""
}

[application]

config/name="ludumdare47"
config/description="None"
run/main_scene="res://game/ld47.tscn"
config/version="0.0.0"

[autoload]

Logger="*res://addons/gs_logger/logger.gd"
Core="*res://gs_core/core.tscn"
ECS="*res://gs_ecs/ecs.gd"
Ludum="*res://gs_ludumdare/ludum.tscn"
DreamLo="*res://gs_dreamlo/dreamlo.tscn"
SceneManager="*res://gs_scene_manager/scene_manager.tscn"
WindowManager="*res://gs_window_manager/window_manager.tscn"
IconLoader="*res://addons/file-editor/scripts/IconLoader.gd"
LastOpenedFiles="*res://addons/file-editor/scripts/LastOpenedFiles.gd"
Game="*res://game/game.tscn"

[display]

window/size/width=960
window/size/height=540
window/stretch/mode="2d"
window/stretch/aspect="keep"

[editor_plugins]

enabled=PoolStringArray( "file-editor", "gs_logger" )

[input]

next={
"deadzone": 0.5,
"events": [ Object(InputEventKey,"resource_local_to_scene":false,"resource_name":"","device":0,"alt":false,"shift":false,"control":false,"meta":false,"command":false,"pressed":false,"scancode":16777246,"unicode":0,"echo":false,"script":null)
 ]
}
prev={
"deadzone": 0.5,
"events": [ Object(InputEventKey,"resource_local_to_scene":false,"resource_name":"","device":0,"alt":false,"shift":true,"control":false,"meta":false,"command":false,"pressed":false,"scancode":16777246,"unicode":0,"echo":false,"script":null)
 ]
}
fire_weapon={
"deadzone": 0.5,
"events": [ Object(InputEventMouseButton,"resource_local_to_scene":false,"resource_name":"","device":0,"alt":false,"shift":false,"control":false,"meta":false,"command":false,"button_mask":0,"position":Vector2( 0, 0 ),"global_position":Vector2( 0, 0 ),"factor":1.0,"button_index":1,"pressed":false,"doubleclick":false,"script":null)
 ]
}
pause={
"deadzone": 0.5,
"events": [ Object(InputEventKey,"resource_local_to_scene":false,"resource_name":"","device":0,"alt":false,"shift":false,"control":false,"meta":false,"command":false,"pressed":false,"scancode":16777217,"unicode":0,"echo":false,"script":null)
 ]
}

[layer_names]

2d_render/layer_1="player"
2d_physics/layer_1="player"
2d_render/layer_2="laser"
2d_physics/layer_2="laser"
2d_render/layer_3="trigger"
2d_physics/layer_3="trigger"
2d_render/layer_4="portal"
2d_physics/layer_4="portal"
2d_physics/layer_5="pickup"
2d_physics/layer_6="enemy"

[rendering]

environment/default_clear_color=Color( 0.0313726, 0.0235294, 0.0705882, 1 )
