[gd_scene load_steps=5 format=2]

[ext_resource path="res://game/assets/star.svg" type="Texture" id=1]

[sub_resource type="Curve" id=1]
_data = [ Vector2( 0, 0.0258621 ), 0.0, 0.0, 0, 0, Vector2( 0.251337, 1 ), 0.0, 0.0, 0, 0, Vector2( 0.518717, 0 ), 0.0, 0.0, 0, 0, Vector2( 0.754011, 1 ), 0.0, 0.0, 0, 0, Vector2( 1, 0.00862074 ), 0.0, 0.0, 0, 0 ]

[sub_resource type="CurveTexture" id=2]
curve = SubResource( 1 )

[sub_resource type="ParticlesMaterial" id=3]
emission_shape = 2
emission_box_extents = Vector3( 480, 270, 0 )
flag_disable_z = true
gravity = Vector3( 0, 0, 0 )
angular_velocity = 50.0
angular_velocity_random = 1.0
orbit_velocity = 0.0
orbit_velocity_random = 0.0
scale = 0.3
scale_random = 0.3
scale_curve = SubResource( 2 )

[node name="Particles2D" type="Particles2D"]
modulate = Color( 1.1, 1.1, 1.1, 1 )
show_behind_parent = true
position = Vector2( 480, 270 )
amount = 16
lifetime = 6.0
preprocess = 6.0
visibility_rect = Rect2( -480, -270, 960, 540 )
process_material = SubResource( 3 )
texture = ExtResource( 1 )
