[gd_scene load_steps=5 format=2]

[ext_resource path="res://game_work/laser_work.gd" type="Script" id=1]
[ext_resource path="res://game/entities/laser.tscn" type="PackedScene" id=2]
[ext_resource path="res://icon.png" type="Texture" id=3]

[sub_resource type="RectangleShape2D" id=1]
extents = Vector2( 19.1863, 92.7245 )

[node name="LaserWork" type="Node2D"]
script = ExtResource( 1 )

[node name="Laser" parent="." instance=ExtResource( 2 )]
position = Vector2( 118.801, 132.149 )
growth_time = 0.1

[node name="icon" type="Sprite" parent="."]
position = Vector2( 72.3694, 133.155 )
texture = ExtResource( 3 )

[node name="Area2D" type="Area2D" parent="."]
position = Vector2( 547.314, 143.725 )
collision_layer = 37

[node name="Sprite" type="Sprite" parent="Area2D"]
self_modulate = Color( 0, 0, 0, 1 )
position = Vector2( -1.33636, 0.44548 )
scale = Vector2( 0.373587, 2.65651 )
texture = ExtResource( 3 )

[node name="CollisionShape2D" type="CollisionShape2D" parent="Area2D"]
position = Vector2( -1, 0 )
shape = SubResource( 1 )
__meta__ = {
"_edit_group_": true
}
