[gd_scene load_steps=5 format=2]

[ext_resource path="res://game_work/trigger_work.tscn" type="PackedScene" id=1]
[ext_resource path="res://game_work/trigger_move_work.gd" type="Script" id=2]

[sub_resource type="Curve2D" id=1]
_data = {
"points": PoolVector2Array( 0, 0, 0, 0, 49, 98, 0, 0, 0, 0, 155, 344, 0, 0, 0, 0, 200, 248, 0, 0, 0, 0, 245, 334, 0, 0, 0, 0, 318, 128, 0, 0, 0, 0, 409, 128, 0, 0, 0, 0, 406, 325, 0, 0, 0, 0, 512, 333, 0, 0, 0, 0, 500, 131, 0, 0, 0, 0, 579, 130, 0, 0, 0, 0, 659, 315, 0, 0, 0, 0, 655, 47, 0, 0, 0, 0, 49, 98 )
}

[sub_resource type="Curve2D" id=2]
_data = {
"points": PoolVector2Array( 38, -173, -38, 173, 126, 259, -4, 91, 4, -91, 317, 363, 34, 26, -34, -26, 260, 245, 0, 0, 0, 0, 126, 259 )
}

[node name="Level" type="Node2D"]

[node name="Loop" type="Path2D" parent="."]
position = Vector2( 109, 84 )
curve = SubResource( 1 )

[node name="Trigger" parent="." instance=ExtResource( 1 )]
position = Vector2( 319, 484 )

[node name="Trigger2" parent="." instance=ExtResource( 1 )]
position = Vector2( 310, 284 )

[node name="Trigger3" parent="." instance=ExtResource( 1 )]
position = Vector2( 117, 160 )

[node name="Trigger4" parent="." instance=ExtResource( 1 )]
position = Vector2( 517, 461 )

[node name="Trigger5" parent="." instance=ExtResource( 1 )]
position = Vector2( 774, 455 )

[node name="Trigger6" parent="." instance=ExtResource( 1 )]
position = Vector2( 778, 88 )

[node name="TriggerMovePath" type="Path2D" parent="."]
position = Vector2( 404.579, -25.4971 )
scale = Vector2( 0.499899, 0.515268 )
curve = SubResource( 2 )
script = ExtResource( 2 )
speed = 45.0
