[gd_scene load_steps=3 format=2]

[ext_resource path="res://game_work/trigger_work.tscn" type="PackedScene" id=1]

[sub_resource type="Curve2D" id=1]
_data = {
"points": PoolVector2Array( 0, 0, 0, 0, 274.73, 152.092, 0, 0, 0, 0, 452.719, 256.978, 0, 0, 0, 0, 772.677, 101.237, 0, 0, 0, 0, 774.796, 455.098, 0, 0, 0, 0, 458.017, 300.416, 0, 0, 0, 0, 135.94, 450.86, 0, 0, 0, 0, 133.821, 274.989, 0, 0, 0, 0, 131.702, 71.5723, 0, 0, 0, 0, 274.73, 152.092 )
}

[node name="Level" type="Node2D"]

[node name="Loop" type="Path2D" parent="."]
curve = SubResource( 1 )

[node name="Trigger" parent="." instance=ExtResource( 1 )]
position = Vector2( 450.272, 201.298 )

[node name="Trigger2" parent="." instance=ExtResource( 1 )]
position = Vector2( 455.569, 352.801 )

[node name="Trigger3" parent="." instance=ExtResource( 1 )]
position = Vector2( 773.407, 101.708 )

[node name="Trigger4" parent="." instance=ExtResource( 1 )]
position = Vector2( 774.468, 455.569 )

[node name="Trigger5" parent="." instance=ExtResource( 1 )]
position = Vector2( 129.255, 452.391 )
rotation = -2.81548

[node name="Trigger6" parent="." instance=ExtResource( 1 )]
position = Vector2( 137.73, 75.2219 )
rotation = -2.81548

[node name="Trigger7" parent="." instance=ExtResource( 1 )]
position = Vector2( 502.185, 276.52 )
rotation = -2.81548

[node name="Trigger8" parent="." instance=ExtResource( 1 )]
position = Vector2( 401.536, 277.579 )
rotation = -2.81548
