[gd_scene load_steps=3 format=2]

[ext_resource path="res://game_work/trigger_work.tscn" type="PackedScene" id=1]

[sub_resource type="Curve2D" id=1]
_data = {
"points": PoolVector2Array( 0, 0, 0, 0, 427.462, 475.281, 0, 0, 0, 0, 392.185, 673.088, 0, 0, 0, 0, 126.341, 533.237, 0, 0, 0, 0, 247.294, 797.821, 0, 0, 0, 0, 208.236, 916.253, 0, 0, 0, 0, 532.036, 741.124, 0, 0, 0, 0, 829.377, 877.196, 0, 0, 0, 0, 663.068, 647.89, 0, 0, 0, 0, 887.334, 492.92, 0, 0, 0, 0, 579.913, 526.938, 0, 0, 0, 0, 427.462, 475.281 )
}

[node name="Level" type="Node2D"]

[node name="Loop" type="Path2D" parent="."]
position = Vector2( 1.87444, -416.694 )
curve = SubResource( 1 )

[node name="Trigger1" parent="." instance=ExtResource( 1 )]
position = Vector2( 130.186, 258.091 )
scale = Vector2( 0.502185, 0.491622 )

[node name="Trigger2" parent="." instance=ExtResource( 1 )]
position = Vector2( 765.01, 259.893 )
scale = Vector2( 0.502185, 0.491622 )
