[gd_scene load_steps=2 format=2]

[ext_resource path="res://game/assets/panel.svg" type="Texture" id=1]

[node name="Panel" type="NinePatchRect"]
modulate = Color( 1, 1, 1, 0.501961 )
anchor_left = 0.5
anchor_top = 0.5
anchor_right = 0.5
anchor_bottom = 0.5
margin_left = -249.0
margin_top = -181.0
margin_right = 250.0
margin_bottom = 196.0
texture = ExtResource( 1 )
region_rect = Rect2( 0, 0, 82.704, 79.9064 )
patch_margin_left = 11
patch_margin_top = 13
patch_margin_right = 11
patch_margin_bottom = 11
__meta__ = {
"_edit_use_anchors_": false
}
