[gd_scene load_steps=3 format=2]

[ext_resource path="res://game_work/level1_work.tscn" type="PackedScene" id=1]
[ext_resource path="res://game_work/path_work.gd" type="Script" id=2]

[node name="PathWork" type="Node2D"]
script = ExtResource( 2 )
speed = 0.004

[node name="Camera2D" type="Camera2D" parent="."]
offset = Vector2( 480, 270 )
current = true
zoom = Vector2( 2, 2 )

[node name="Level1" parent="." instance=ExtResource( 1 )]
