[gd_scene load_steps=5 format=2]

[ext_resource path="res://game/assets/player.svg" type="Texture" id=1]
[ext_resource path="res://game/entities/laser.tscn" type="PackedScene" id=2]
[ext_resource path="res://game_work/player_work.gd" type="Script" id=3]

[sub_resource type="CircleShape2D" id=1]
radius = 11.1433

[node name="Player" type="Area2D"]
modulate = Color( 1.3, 1.3, 1.3, 1 )
collision_mask = 60
script = ExtResource( 3 )

[node name="Laser" parent="." instance=ExtResource( 2 )]
max_length = 1400.0
growth_time = 0.01

[node name="Sprite" type="Sprite" parent="."]
rotation = 1.5708
scale = Vector2( 0.5, 0.5 )
texture = ExtResource( 1 )

[node name="Collision" type="CollisionShape2D" parent="."]
position = Vector2( -7.73858, -0.396847 )
shape = SubResource( 1 )
[connection signal="area_entered" from="." to="." method="_on_Player_area_entered"]
