[gd_scene load_steps=3 format=2]

[ext_resource path="res://game/fonts/game_font_32.tres" type="DynamicFont" id=1]
[ext_resource path="res://game_work/power_work.gd" type="Script" id=2]



[node name="Power" type="Control"]
margin_left = -250.0
margin_top = 25.0
mouse_filter = 2
script = ExtResource( 2 )
__meta__ = {
"_edit_use_anchors_": false
}

[node name="Outline" type="Line2D" parent="."]
modulate = Color( 1, 1, 1.1, 1 )
points = PoolVector2Array( 0, 0, 500, 0 )
width = 25.0
default_color = Color( 0.232422, 0.232422, 0.265625, 1 )
joint_mode = 2
begin_cap_mode = 2
end_cap_mode = 2
antialiased = true

[node name="Line" type="Line2D" parent="."]
modulate = Color( 1, 1, 1.1, 1 )
points = PoolVector2Array( 0, 0, 500, 0 )
width = 20.0
joint_mode = 2
begin_cap_mode = 2
end_cap_mode = 2
antialiased = true

[node name="Label" type="Label" parent="."]
anchor_left = 0.5
anchor_top = 0.5
anchor_right = 0.5
anchor_bottom = 0.5
margin_left = -234.897
margin_top = -7.27121
margin_right = -154.897
margin_bottom = 12.7288
custom_fonts/font = ExtResource( 1 )
text = "POWER"
align = 1
valign = 1
__meta__ = {
"_edit_use_anchors_": false
}
